// Jest Snapshot v1, https://goo.gl/fbAQLP

exports[`Filters Test 1`] = `
<div
  className="ant-collapse ant-collapse-borderless filters"
  style={undefined}
>
  <div
    className="ant-collapse-item"
    id={undefined}
    role="tablist"
    style={
      Object {
        "textTransform": "uppercase",
      }
    }
  >
    <div
      aria-expanded={false}
      className="ant-collapse-header"
      onClick={[Function]}
      role="tab"
    >
      <i
        className="arrow"
      />
      colour
    </div>
  </div>
  <div
    className="ant-collapse-item"
    id={undefined}
    role="tablist"
    style={
      Object {
        "textTransform": "uppercase",
      }
    }
  >
    <div
      aria-expanded={false}
      className="ant-collapse-header"
      onClick={[Function]}
      role="tab"
    >
      <i
        className="arrow"
      />
      size
    </div>
  </div>
  <div
    className="ant-collapse-item"
    id={undefined}
    role="tablist"
    style={
      Object {
        "textTransform": "uppercase",
      }
    }
  >
    <div
      aria-expanded={false}
      className="ant-collapse-header"
      onClick={[Function]}
      role="tab"
    >
      <i
        className="arrow"
      />
      style
    </div>
  </div>
</div>
`;
